<?xml version="1.0" encoding="UTF-8" standalone="no"?> <!-- Created with Vectornator for iOS (http://vectornator.io/) --><!DOCTYPE svg PUBLIC "-//W3C//DTD SVG 1.1//EN" "http://www.w3.org/Graphics/SVG/1.1/DTD/svg11.dtd">
<svg style="fill-rule:evenodd;clip-rule:evenodd;stroke-linecap:round;stroke-linejoin:round;" xmlns:vectornator="http://vectornator.io" xmlns:xlink="http://www.w3.org/1999/xlink" xmlns="http://www.w3.org/2000/svg" xml:space="preserve" version="1.1" viewBox="0 0 4000 4000">
<metadata>
<vectornator:setting key="DisplayWhiteBackground" value="0"/>
<vectornator:setting key="RulersVisible" value="1"/>
<vectornator:setting key="GridSpacing" value="64"/>
<vectornator:setting key="Units" value="Points"/>
<vectornator:setting key="DynamicGuides" value="1"/>
<vectornator:setting key="SnapToPoints" value="0"/>
<vectornator:setting key="CMYKEnabledKey" value="0"/>
<vectornator:setting key="SnapToGrid" value="0"/>
<vectornator:setting key="SnapToGuides" value="1"/>
<vectornator:setting key="ShowGrid" value="1"/>
<vectornator:setting key="SnapToEdges" value="1"/>
</metadata>
<defs>
<radialGradient cx="1001.64" r="507.813" id="RadialGradient" gradientUnits="userSpaceOnUse" gradientTransform="matrix(4.13147 0 0 4.13147 -2138.26 -1018.11)" cy="730.517">
<stop stop-opacity="0" stop-color="#000000" offset="0"/>
<stop stop-color="#292e49" offset="0.617284"/>
<stop stop-opacity="0.587669" stop-color="#ffffff" offset="0.631393"/>
<stop stop-color="#536976" offset="0.661376"/>
<stop stop-color="#292e49" offset="0.758377"/>
<stop stop-opacity="0" stop-color="#000000" offset="0.784832"/>
<stop stop-color="#818aba" offset="1"/>
</radialGradient>
</defs>
<g id="Layer 1" vectornator:layerName="Layer 1">
<path d="M1596.05+3930.69L920.429+3650.84C697.334+3558.43+441.568+3302.67+349.159+3079.57L69.3067+2403.95C-23.1022+2180.85-23.1022+1819.15+69.3067+1596.05L349.159+920.428C441.568+697.334+697.334+441.567+920.429+349.159L1596.05+69.3066C1819.15-23.1023+2180.85-23.1022+2403.95+69.3067L3079.57+349.159C3302.67+441.568+3558.43+697.334+3650.84+920.429L3930.69+1596.05C4023.1+1819.15+4023.1+2180.85+3930.69+2403.95L3650.84+3079.57C3558.43+3302.67+3302.67+3558.43+3079.57+3650.84L2403.95+3930.69C2180.85+4023.1+1819.15+4023.1+1596.05+3930.69Z" opacity="1" fill="url(#RadialGradient)"/>
</g>
</svg>
